…
``` r
remotes::install_github("unmnn/charitemisc")
```

## Usage

``` r
library(charitemisc)
library(dplyr)
library(purrr)
data_dict
```

    ## # A tibble: 380 x 4
    ##    item      label        description                           values  
    ##    <chr>     <chr>        <chr>                                 <list>  
    ##  1 .age      age          patient age                           <NULL>  
    ##  2 .jour_nr  .jour_nr     patient ID                            <NULL>  
    ##  3 .group    .group       meta: group                           <NULL>  
    ##  4 .phase    .phase       phase                                 <chr [3~
    ##  5 .phase_s~ .phase_seq   chronological sequence of phases for~ <NULL>  
    ##  6 .testdat~ Date         testing date                          <NULL>  
    ##  7 .day      testing_day  testing date: day of the month        <NULL>  
    ##  8 .weekday  testing_wee~ testing date: day of the week         <NULL>  
    ##  9 .yearday  testing_yea~ testing date: day of the year         <NULL>  
    ## 10 .week     testing_week testing date: calendar week           <NULL>  
    ## # ... with 370 more rows
…
